{
  "project_info": {
    "project_number": "584692700194",
    "firebase_url": "https://buildingenergy-b4f6d.firebaseio.com",
    "project_id": "buildingenergy-b4f6d",
    "storage_bucket": "buildingenergy-b4f6d.appspot.com"
  },
  "client": [
    {
      "client_info": {
        "mobilesdk_app_id": "1:584692700194:android:a761a5d065488e92",
        "android_client_info": {
          "package_name": "edu.columbia.icsl.androidmobile"
        }
      },
      "oauth_client": [
        {
          "client_id": "584692700194-2fhems8vkkim0o43b0bt3crqjbq5vu8c.apps.googleusercontent.com",
          "client_type": 1,
          "android_info": {
            "package_name": "edu.columbia.icsl.androidmobile",
            "certificate_hash": "e432f7eec7da3dbebd4bec146868e03d76ba52d8"
          }
        },
        {
          "client_id": "584692700194-1fqcsicbh8tk0osi55gm3vg5avaj7du6.apps.googleusercontent.com",
          "client_type": 3
        }
      ],
      "api_key": [
        {
          "current_key": "AIzaSyBt3ibgA-ZH-PN2enWCAU1axujnw73CpmE"
        }
      ],
      "services": {
        "analytics_service": {
          "status": 1
        },
        "appinvite_service": {
          "status": 2,
          "other_platform_oauth_client": [
            {
              "client_id": "584692700194-1fqcsicbh8tk0osi55gm3vg5avaj7du6.apps.googleusercontent.com",
              "client_type": 3
            }
          ]
        },
        "ads_service": {
          "status": 2
        }
      }
    }
  ],
  "configuration_version": "1"
}